…
Please notice that the function created additional rows for each time it encountered the needed ID.

Pivoting and Unpivoting Data

Another useful function for a data analyst is to be able to pivot and un-pivot data. There are a couple of methods to do this. The simplest is using two functions pivot_longer() and pivot_wider(). The first function gathers multiple columns in one (makes a table longer) and the other function creates new columns using a previous column. The functionality is similar to that of a pivot_table in Excel.

Let’s take a look at it in the following examples:

Pivot wider

mtcars %>%
  pivot_wider(names_from = cyl, values_from = mpg)

#> # A tibble: 32 x 12
#>     disp    hp  drat    wt  qsec    vs    am  gear  carb   `6`   `4`   `8`
#>    <dbl> <dbl> <dbl> <dbl> <dbl> <dbl> <dbl> <dbl> <dbl> <dbl> <dbl> <dbl>
#>  1  160    110  3.9   2.62  16.5     0     1     4     4  21    NA    NA  
#>  2  160    110  3.9   2.88  17.0     0     1     4     4  21    NA    NA  
#>  3  108     93  3.85  2.32  18.6     1     1     4     1  NA    22.8  NA  
#>  4  258    110  3.08  3.22  19.4     1     0     3     1  21.4  NA    NA  
#>  5  360    175  3.15  3.44  17.0     0     0     3     2  NA    NA    18.7
#>  6  225    105  2.76  3.46  20.2     1     0     3     1  18.1  NA    NA  
#>  7  360    245  3.21  3.57  15.8     0     0     3     4  NA    NA    14.3
#>  8  147.    62  3.69  3.19  20       1     0     4     2  NA    24.4  NA  
#>  9  141.    95  3.92  3.15  22.9     1     0     4     2  NA    22.8  NA  
#> 10  168.   123  3.92  3.44  18.3     1     0     4     4  19.2  NA    NA  
#> # ... with 22 more rows

The function took the values from the cyl column, created new columns with those values and filled them with the values from the mpg column.

Pivot Longer

Pivot longer does the exact opposite. Let’s see.

mtcars %>%
  pivot_wider(names_from = cyl, values_from = mpg) %>%
  pivot_longer(cols = c("4", "6", "8"), names_to = "cyl", values_to = "mpg")

#> # A tibble: 96 x 11
#>     disp    hp  drat    wt  qsec    vs    am  gear  carb cyl     mpg
#>    <dbl> <dbl> <dbl> <dbl> <dbl> <dbl> <dbl> <dbl> <dbl> <chr> <dbl>
#>  1   160   110  3.9   2.62  16.5     0     1     4     4 4      NA  
#>  2   160   110  3.9   2.62  16.5     0     1     4     4 6      21  
#>  3   160   110  3.9   2.62  16.5     0     1     4     4 8      NA  
#>  4   160   110  3.9   2.88  17.0     0     1     4     4 4      NA  
#>  5   160   110  3.9   2.88  17.0     0     1     4     4 6      21  
#>  6   160   110  3.9   2.88  17.0     0     1     4     4 8      NA  
#>  7   108    93  3.85  2.32  18.6     1     1     4     1 4      22.8
#>  8   108    93  3.85  2.32  18.6     1     1     4     1 6      NA  
#>  9   108    93  3.85  2.32  18.6     1     1     4     1 8      NA  
#> 10   258   110  3.08  3.22  19.4     1     0     3     1 4      NA  
#> # ... with 86 more rows

Now this created some extra rows, one for each extra column we previously created. We do not need three for each car considering that two of the are NA’s. All we need to do in this situation is filter the data, eliminating the NA values.

mtcars %>%
  pivot_wider(names_from = cyl, values_from = mpg) %>%
  pivot_longer(cols = c("4", "6", "8"), names_to = "cyl", values_to = "mpg") %>%
  filter(!is.na(mpg)) # notice the ! before the function in order to use the negative of the function

#> # A tibble: 32 x 11
#>     disp    hp  drat    wt  qsec    vs    am  gear  carb cyl     mpg
#>    <dbl> <dbl> <dbl> <dbl> <dbl> <dbl> <dbl> <dbl> <dbl> <chr> <dbl>
#>  1  160    110  3.9   2.62  16.5     0     1     4     4 6      21  
#>  2  160    110  3.9   2.88  17.0     0     1     4     4 6      21  
#>  3  108     93  3.85  2.32  18.6     1     1     4     1 4      22.8
#>  4  258    110  3.08  3.22  19.4     1     0     3     1 6      21.4
#>  5  360    175  3.15  3.44  17.0     0     0     3     2 8      18.7
#>  6  225    105  2.76  3.46  20.2     1     0     3     1 6      18.1
#>  7  360    245  3.21  3.57  15.8     0     0     3     4 8      14.3
#>  8  147.    62  3.69  3.19  20       1     0     4     2 4      24.4
#>  9  141.    95  3.92  3.15  22.9     1     0     4     2 4      22.8
#> 10  168.   123  3.92  3.44  18.3     1     0     4     4 6      19.2
#> # ... with 22 more rows
…
