Text Analysis with R | Clarity
…
#> v ggplot2 3.3.3     v purrr   0.3.4
#> v tibble  3.0.6     v dplyr   1.0.4
#> v tidyr   1.1.2     v stringr 1.4.0
#> v readr   1.4.0     v forcats 0.5.1

#> -- Conflicts ------------------------------------------ tidyverse_conflicts() --
#> x dplyr::filter() masks stats::filter()
#> x dplyr::lag()    masks stats::lag()

reviews %>%
# We need to specify the name of the column to be created (Word) and the source column (Text)
  unnest_tokens("Word", "Text") 

#> # A tibble: 30,067 x 3
#>    Model     Segment      Word      
#>    <chr>     <chr>        <chr>     
#>  1 OnePlus 1 Introduction the       
#>  2 OnePlus 1 Introduction days      
#>  3 OnePlus 1 Introduction of        
#>  4 OnePlus 1 Introduction the       
#>  5 OnePlus 1 Introduction 600       
#>  6 OnePlus 1 Introduction smartphone
#>  7 OnePlus 1 Introduction aren't    
#>  8 OnePlus 1 Introduction over      
#>  9 OnePlus 1 Introduction quite     
#> 10 OnePlus 1 Introduction yet       
#> # ... with 30,057 more rows
…
words with high frequency in just one of the documents and not the other: high weight

words with low frequency across the board: low weight

Let’s see this in practice:

review_tf_idf <- 
  reviews_tidy %>%
    count(Model, Word, sort = TRUE) %>%
    bind_tf_idf(Word, Model, n)
review_tf_idf %>%
  arrange(desc(tf_idf))

#> # A tibble: 8,213 x 6
#>    Model              Word        n     tf   idf tf_idf
#>    <chr>              <chr>   <int>  <dbl> <dbl>  <dbl>
#>  1 OnePlus 6T         6t         31 0.0293 2.08  0.0609
#>  2 OnePlus 5T         5t         21 0.0195 2.77  0.0540
#>  3 OnePlus 6          s9         18 0.0183 2.77  0.0508
#>  4 OnePlus 7T McLaren mclaren    20 0.0292 1.67  0.0489
#>  5 OnePlus 2          s6         11 0.0164 2.77  0.0456
#>  6 OnePlus 7 Pro 5G   5g         40 0.0620 0.693 0.0430
#>  7 OnePlus 7T         7t         22 0.0306 1.39  0.0425
#>  8 OnePlus 8 Pro      s20        25 0.0245 1.67  0.0410
#>  9 OnePlus 8          s20        25 0.0223 1.67  0.0373
#> 10 OnePlus 3T         3t         21 0.0222 1.67  0.0372
#> # ... with 8,203 more rows
…
Well, the most basic method, and the one that we will cover today, is to simply associate each word in the review to a sentiment. Then it becomes a simple matter of counting how many words are associated with positive or negative sentiments to get the overall affect of the text.

This is quite straight forward and the tidyverse package comes to our aid with some libraries that already have these associations made and are also validated against multiple sources. The libraries are:

AFFIN from Finn Årup Nielsen

bing from Bing Liu and collaborators

nrc from Saif Mohammad and Peter Turney

Each of these libraries is helpful in its own way and approaches sentiment analysis differently. Let’s check them:

get_sentiments("afinn")

#> # A tibble: 2,477 x 2
#>    word       value
#>    <chr>      <dbl>
#>  1 abandon       -2
#>  2 abandoned     -2
#>  3 abandons      -2
#>  4 abducted      -2
#>  5 abduction     -2
#>  6 abductions    -2
#>  7 abhor         -3
#>  8 abhorred      -3
#>  9 abhorrent     -3
#> 10 abhors        -3
#> # ... with 2,467 more rows

get_sentiments("bing")

#> # A tibble: 6,786 x 2
#>    word        sentiment
#>    <chr>       <chr>    
#>  1 2-faces     negative 
#>  2 abnormal    negative 
#>  3 abolish     negative 
#>  4 abominable  negative 
#>  5 abominably  negative 
#>  6 abominate   negative 
#>  7 abomination negative 
#>  8 abort       negative 
#>  9 aborted     negative 
#> 10 aborts      negative 
#> # ... with 6,776 more rows

get_sentiments("nrc")

#> # A tibble: 13,901 x 2
#>    word        sentiment
#>    <chr>       <chr>    
#>  1 abacus      trust    
#>  2 abandon     fear     
#>  3 abandon     negative 
#>  4 abandon     sadness  
#>  5 abandoned   anger    
#>  6 abandoned   fear     
#>  7 abandoned   negative 
#>  8 abandoned   sadness  
#>  9 abandonment anger    
#> 10 abandonment fear     
#> # ... with 13,891 more rows
…
Let’s proceed by using the AFINN library to check the sentiment for each model and see how they perform. We will use just the conclusion for each review as that should be the most relevant in transmitting the overall sentiment for the whole review.

However, we have to keep in mind that these being technical reviews, they might contain a terminology different from the one used in natural language, and the analysis might not be as accurate as an analysis on Facebook posts, for example.

conclusion_afinn <- reviews %>%
  filter(str_detect(Segment, "Conclusion")) %>%
  unnest_tokens("Word", "Text") %>%
  anti_join(stop_words, by = c("Word" = "word")) %>%
# We will get the sentiments with a inner_join since the words that don't have a match, don't have a score value
  inner_join(get_sentiments("afinn"), by = c("Word" = "word"))

conclusion_afinn

#> # A tibble: 122 x 4
#>    Model     Segment                 Word     value
#>    <chr>     <chr>                   <chr>    <dbl>
#>  1 OnePlus 1 Cameras and Conclusions cut         -1
#>  2 OnePlus 1 Cameras and Conclusions true         2
#>  3 OnePlus 1 Cameras and Conclusions alive        1
#>  4 OnePlus 1 Cameras and Conclusions true         2
#>  5 OnePlus 1 Cameras and Conclusions miss        -2
#>  6 OnePlus 1 Cameras and Conclusions straight     1
#>  7 OnePlus 1 Cameras and Conclusions capable      1
#>  8 OnePlus 1 Cameras and Conclusions free         1
#>  9 OnePlus 1 Cameras and Conclusions demand      -1
#> 10 OnePlus 1 Cameras and Conclusions impress      3
#> # ... with 112 more rows
…
The scores are in and overall the Oneplus 2 has the best reviews.

However, what if we want to see a report on which model has the most positive and negative reviews? For that we would use the bing library.

Let’s see how:

conclusion_bing <- reviews %>%
  filter(str_detect(Segment, "Conclusion")) %>%
  unnest_tokens("Word", "Text") %>%
  anti_join(stop_words, by = c("Word" = "word")) %>%
  inner_join(get_sentiments("bing"), by = c("Word" = "word"))

conclusion_bing

#> # A tibble: 189 x 4
#>    Model     Segment                 Word       sentiment
#>    <chr>     <chr>                   <chr>      <chr>    
#>  1 OnePlus 1 Cameras and Conclusions led        positive 
#>  2 OnePlus 1 Cameras and Conclusions distortion negative 
#>  3 OnePlus 1 Cameras and Conclusions miss       negative 
#>  4 OnePlus 1 Cameras and Conclusions dynamic    positive 
#>  5 OnePlus 1 Cameras and Conclusions distortion negative 
#>  6 OnePlus 1 Cameras and Conclusions warped     negative 
#>  7 OnePlus 1 Cameras and Conclusions unnatural  negative 
#>  8 OnePlus 1 Cameras and Conclusions admirable  positive 
#>  9 OnePlus 1 Cameras and Conclusions soft       positive 
#> 10 OnePlus 1 Cameras and Conclusions prefer     positive 
#> # ... with 179 more rows
…
